<?xml version="1.0" encoding="UTF-8" standalone="no"?>
<svg
   xmlns:dc="http://purl.org/dc/elements/1.1/"
   xmlns:cc="http://creativecommons.org/ns#"
   xmlns:rdf="http://www.w3.org/1999/02/22-rdf-syntax-ns#"
   xmlns:svg="http://www.w3.org/2000/svg"
   xmlns="http://www.w3.org/2000/svg"
   xmlns:xlink="http://www.w3.org/1999/xlink"
   xmlns:sodipodi="http://sodipodi.sourceforge.net/DTD/sodipodi-0.dtd"
   xmlns:inkscape="http://www.inkscape.org/namespaces/inkscape"
   version="1.1"
   x="0px"
   y="0px"
   viewBox="0 0 612 200"
   enable-background="new 0 0 612 117"
   xml:space="preserve"
   width="100%"
   height="100%"
   id="svg2985"
   inkscape:version="0.48.2 r9819"
   sodipodi:docname="logo-flat-cr.svg"><metadata
   id="metadata3053"><rdf:RDF><cc:Work
       rdf:about=""><dc:format>image/svg+xml</dc:format><dc:type
         rdf:resource="http://purl.org/dc/dcmitype/StillImage" /><dc:title></dc:title></cc:Work></rdf:RDF></metadata><defs
   id="defs3051"><linearGradient
     id="linearGradient3962"><stop
       style="stop-color:#876d1c;stop-opacity:1;"
       offset="0"
       id="stop3964" /><stop
       style="stop-color:#876d1c;stop-opacity:0;"
       offset="1"
       id="stop3966" /></linearGradient><linearGradient
     inkscape:collect="always"
     xlink:href="#linearGradient3962"
     id="linearGradient3972"
     x1="412.67245"
     y1="116.72871"
     x2="412.67245"
     y2="123.16429"
     gradientUnits="userSpaceOnUse"
     spreadMethod="pad" /></defs><sodipodi:namedview
   pagecolor="#ffffff"
   bordercolor="#666666"
   borderopacity="1"
   objecttolerance="10"
   gridtolerance="10"
   guidetolerance="10"
   inkscape:pageopacity="0"
   inkscape:pageshadow="2"
   inkscape:window-width="1410"
   inkscape:window-height="879"
   id="namedview3049"
   showgrid="false"
   inkscape:zoom="1.2155484"
   inkscape:cx="358.79854"
   inkscape:cy="31.971086"
   inkscape:window-x="94"
   inkscape:window-y="11"
   inkscape:window-maximized="0"
   inkscape:current-layer="svg2985" />
	<path
   d="m 91.7,14.522979 c 0,0 16,0 16,21 0,10.6 0,120.300001 0,120.300001 0,0 0,10.6 10.6,10.6 10.6,0 372.1,0 372.1,0 0,0 10.6,0 10.6,-10.6 0,0 0,-99.200001 0,-120.300001 0,-21.1 16.1,-21 16.1,-21 -21.2,0 -425.4,0 -425.4,0 z"
   style="fill:#f8e7a9;fill-opacity:1"
   id="path2987"
   inkscape:connector-curvature="0"
   sodipodi:nodetypes="cscsccscc" /><path
   d="m 0,46.122981 c 0,-10.6 10.6,-31.6 31.6,-31.6 21,0 527.7,0 548.8,0 21,0 31.6,21 31.6,31.6 -10.5,0 -601.4,0 -612,0 z"
   style="fill:#1d325a"
   id="path2989" />
	<rect
   style="fill:url(#linearGradient3972);fill-opacity:1"
   id="rect3960"
   width="393.0325"
   height="8.0959263"
   x="107.77029"
   y="115.18973" /><path
   d="m 31.7,14.522981 c 0,0 14,0 14,21 0,10.6 0,70.299999 0,70.299999 0,0 0,10.6 10.6,10.6 10.6,0 496.1,0 496.1,0 0,0 10.6,0 10.6,-10.6 0,0 0,-49.199999 0,-70.299999 0,-21.1 14.1,-21 14.1,-21 -21.2,0 -545.4,0 -545.4,0 z"
   style="fill:#1f4e99"
   id="path2991" />
	<polygon
   points="102.4,74.5 78.6,74.4 80.5,49.3 104.1,49.2 104.5,42.3 71.4,42.3 67.4,46.2 64.8,82.7 101.8,82.5 "
   style="fill:#ffffff"
   transform="translate(0,2.3229813)"
   id="polygon2993" />
	<path
   d="m 150,44.622981 -2.8,40.2 h -12.3 l 0.8,-13.4 h -14.9 l -0.9,13.4 h -12.3 l 2.5,-36.3 4,-3.9 H 150 z m -28.5,18.7 h 14.8 l 0.8,-11.8 h -14.9 l -0.7,11.8 z"
   style="fill:#ffffff"
   id="path2995" />
	<polygon
   points="169.1,42.3 155.7,42.3 153,82.5 193.1,82.5 193.6,74.4 166.9,74.4 "
   style="fill:#ffffff"
   transform="translate(0,2.3229813)"
   id="polygon2997" />
	<polygon
   points="214.3,42.3 201,42.3 198.1,82.5 238.1,82.5 238.6,74.4 212.1,74.4 "
   style="fill:#ffffff"
   transform="translate(0,2.3229813)"
   id="polygon2999" />
	<path
   d="m 360.6,44.522981 h 34 l 2.8,40.2 h -12.2 l -0.9,-13.4 h -14.9 l 1,13.4 H 358 l -2.5,-35.8 5.1,-4.4 z m 23.1,19 -0.8,-12.1 H 368 l 0.8,12.1 c 0,0 14.9,0 14.9,0 z"
   style="fill:#ffffff"
   id="path3001" />
	<path
   d="m 434.2,44.522981 6.2,3.4 1,15.2 -5.9,3.2 6.4,3 1.1,15.5 h -12.3 l -1,-13.5 h -14.9 l 0.8,13.5 -12.3,0.1 v -0.1 l -2.8,-40.2 33.7,-0.1 0,0 z m -5.1,19 -0.8,-12.1 h -15 l 0.8,12.1 c 0,0 15,0 15,0 z"
   style="fill:#ffffff"
   id="path3003" />
	<polygon
   points="469.1,82.5 481.4,82.5 479.1,49.1 486.2,49.1 488.5,82.5 500.8,82.5 498.2,45.6 491.9,42.2 445.9,42.2 448.7,82.5 461.1,82.5 458.8,49.1 466.7,49.1 "
   style="fill:#ffffff"
   transform="translate(0,2.3229813)"
   id="polygon3005" />
	<polygon
   points="506.7,82.5 544,82.4 542.4,57.3 517.2,57.3 516.7,48.9 541.7,48.8 541.5,45.4 535.5,42.2 503.8,42.2 505.5,66.4 528.6,66.4 529.2,74 506.1,74.1 "
   style="fill:#ffffff"
   transform="translate(0,2.3229813)"
   id="polygon3007" />
	<polygon
   points="251.7,9.5 296.5,0 341.3,9.5 343.9,46.4 301.3,83.9 346.4,83.9 348.8,117.2 244.2,117.2 246.4,85.6 315.3,28.6 296.7,24.8 280.6,27.6 279.8,43.6 249.4,43.6 "
   style="fill:#ffffff"
   transform="translate(0,2.3229813)"
   id="polygon3009" />
	<polygon
   points="255,12.3 296.5,3.5 337.9,12.3 340.4,44.9 292.3,87.3 343.3,87.3 345.1,113.8 247.8,113.8 249.7,87.3 321.3,26.7 296.5,21.3 277.3,24.9 276.5,40.2 253,40.2 "
   style="fill:#ea2127"
   transform="translate(0,2.3229813)"
   id="polygon3011" />
<g
   style="font-size:48px;font-style:normal;font-variant:normal;font-weight:normal;font-stretch:normal;line-height:125%;letter-spacing:0px;word-spacing:0px;fill:#ffffff;fill-opacity:1;stroke:none;font-family:FrizQuadrataCTT;-inkscape-font-specification:FrizQuadrataCTT"
   transform="matrix(0.68369032,0,0,0.67316635,95.087907,41.966979)"
   id="g3013-8"><path
     inkscape:connector-curvature="0"
     d="m 120.64652,135.22516 0,4.88 c -1.09336,-0.74664 -2.32002,-1.35997 -3.68,-1.84 -1.36002,-0.47997 -2.77335,-0.71997 -4.24,-0.72 -2.82668,3e-5 -5.28001,0.92003 -7.36,2.76 -2.08001,1.81336 -3.12001,4.33335 -3.12,7.56 -1e-5,3.68001 1.05333,6.61334 3.16,8.8 2.10665,2.18667 4.86665,3.28001 8.28,3.28 1.97331,1e-5 3.73331,-0.23999 5.28,-0.72 1.57331,-0.47999 2.94664,-1.22666 4.12,-2.24 l -2.72,5.36 c -1.17336,0.34667 -2.30669,0.58667 -3.4,0.72 -1.06669,0.16 -2.26669,0.25334 -3.6,0.28 -4.96001,0 -8.82668,-1.33333 -11.6,-4 -2.773337,-2.69332 -4.146669,-6.15999 -4.120001,-10.4 -10e-7,-4.07998 1.373331,-7.55998 4.120001,-10.44 2.77332,-2.87997 6.58665,-4.3333 11.44,-4.36 0.77331,3e-5 1.51998,0.04 2.24,0.12 0.71998,0.08 1.70664,0.25336 2.96,0.52 0.53331,0.13336 0.94664,0.24003 1.24,0.32 0.31998,0.0534 0.65331,0.0934 1,0.12"
     style="font-size:40px;fill:#ffffff;fill-opacity:1"
     id="path3015-9" /><path
     inkscape:connector-curvature="0"
     d="m 138.8208,142.54516 c 3.30665,0.0267 5.95998,1.06669 7.96,3.12 1.99998,2.05335 2.99998,4.48002 3,7.28 -2e-5,3.01334 -1.09335,5.49334 -3.28,7.44 -2.16001,1.94667 -4.84001,2.93334 -8.04,2.96 -3.30667,0 -5.96,-1.02666 -7.96,-3.08 -2,-2.05333 -2.98666,-4.49332 -2.96,-7.32 0,-2.98665 1.08,-5.46665 3.24,-7.44 2.16,-1.97331 4.83999,-2.95998 8.04,-2.96 m -0.24,3.04 c -2.08001,2e-5 -3.74667,0.68002 -5,2.04 -1.25334,1.33335 -1.88,3.10668 -1.88,5.32 0,2.02668 0.61333,3.76001 1.84,5.2 1.22666,1.44001 2.95999,2.16001 5.2,2.16 2.05332,0.0267 3.70665,-0.62666 4.96,-1.96 1.27998,-1.35999 1.91998,-3.15999 1.92,-5.4 -0.0267,-1.99999 -0.65335,-3.71998 -1.88,-5.16 -1.22668,-1.46665 -2.94668,-2.19998 -5.16,-2.2"
     style="font-size:40px;fill:#ffffff;fill-opacity:1"
     id="path3017-3" /><path
     inkscape:connector-curvature="0"
     d="m 161.74071,162.74516 -6.6,0 c 0.48,-0.32 0.82667,-0.69333 1.04,-1.12 0.24,-0.45333 0.36,-1.01333 0.36,-1.68 l 0,-13.8 c 0,-0.63998 -0.12,-1.17331 -0.36,-1.6 -0.21333,-0.45331 -0.56,-0.85331 -1.04,-1.2 l 3.08,0 c 0.45333,0.0267 0.84,-0.0133 1.16,-0.12 0.32,-0.10664 0.64,-0.27998 0.96,-0.52 l 0,2.68 c 0.48,-0.87998 1.31999,-1.57331 2.52,-2.08 1.19999,-0.50664 2.43999,-0.75998 3.72,-0.76 2.34665,2e-5 4.15999,0.58669 5.44,1.76 1.30665,1.14669 1.95998,2.66669 1.96,4.56 l 0,11.08 c -2e-5,0.66667 0.10665,1.22667 0.32,1.68 0.21331,0.42667 0.57331,0.8 1.08,1.12 l -6.6,0 c 0.47999,-0.32 0.82665,-0.69333 1.04,-1.12 0.21332,-0.45333 0.33332,-1.01333 0.36,-1.68 l 0,-10 c -1e-5,-1.33332 -0.44001,-2.38665 -1.32,-3.16 -0.88001,-0.79998 -2.06668,-1.19998 -3.56,-1.2 -1.57334,2e-5 -2.80001,0.38669 -3.68,1.16 -0.85334,0.74668 -1.28,1.89335 -1.28,3.44 l 0,9.76 c 0,0.66667 0.10666,1.22667 0.32,1.68 0.21333,0.42667 0.57333,0.8 1.08,1.12"
     style="font-size:40px;fill:#ffffff;fill-opacity:1"
     id="path3019-7" /><path
     inkscape:connector-curvature="0"
     d="m 187.46375,162.74516 -6.6,0 c 0.48,-0.32 0.82666,-0.69333 1.04,-1.12 0.24,-0.45333 0.36,-1.01333 0.36,-1.68 l 0,-13.8 c 0,-0.63998 -0.12,-1.17331 -0.36,-1.6 -0.21334,-0.45331 -0.56,-0.85331 -1.04,-1.2 l 3.08,0 c 0.45333,0.0267 0.83999,-0.0133 1.16,-0.12 0.31999,-0.10664 0.63999,-0.27998 0.96,-0.52 l 0,2.68 c 0.47999,-0.87998 1.31999,-1.57331 2.52,-2.08 1.19999,-0.50664 2.43999,-0.75998 3.72,-0.76 2.34665,2e-5 4.15998,0.58669 5.44,1.76 1.30665,1.14669 1.95998,2.66669 1.96,4.56 l 0,11.08 c -2e-5,0.66667 0.10665,1.22667 0.32,1.68 0.21331,0.42667 0.57331,0.8 1.08,1.12 l -6.6,0 c 0.47998,-0.32 0.82665,-0.69333 1.04,-1.12 0.21332,-0.45333 0.33332,-1.01333 0.36,-1.68 l 0,-10 c -2e-5,-1.33332 -0.44002,-2.38665 -1.32,-3.16 -0.88001,-0.79998 -2.06668,-1.19998 -3.56,-1.2 -1.57334,2e-5 -2.80001,0.38669 -3.68,1.16 -0.85334,0.74668 -1.28001,1.89335 -1.28,3.44 l 0,9.76 c -1e-5,0.66667 0.10666,1.22667 0.32,1.68 0.21333,0.42667 0.57333,0.8 1.08,1.12"
     style="font-size:40px;fill:#ffffff;fill-opacity:1"
     id="path3021-4" /><path
     inkscape:connector-curvature="0"
     d="m 226.78678,152.46516 -16.12,0 c -0.10667,2.26668 0.55999,4.14668 2,5.64 1.43999,1.46667 3.59999,2.20001 6.48,2.2 1.49332,0.0267 2.87998,-0.11999 4.16,-0.44 1.27998,-0.34666 2.53331,-0.86666 3.76,-1.56 l -2.64,4.16 c -1.04002,0.32 -2.04002,0.54667 -3,0.68 -0.96002,0.13334 -2.00001,0.2 -3.12,0.2 -3.60001,0 -6.46667,-0.92 -8.6,-2.76 -2.13334,-1.83999 -3.2,-4.42666 -3.2,-7.76 -0.0267,-2.98665 0.92,-5.43998 2.84,-7.36 1.94666,-1.94664 4.54666,-2.91998 7.8,-2.92 3.06665,2e-5 5.45332,0.94669 7.16,2.84 1.73331,1.86669 2.55998,4.22668 2.48,7.08 m -15.72,-2.6 11.16,0 c -0.13335,-1.30665 -0.68002,-2.34665 -1.64,-3.12 -0.96001,-0.77331 -2.17335,-1.15998 -3.64,-1.16 -1.52001,0.0267 -2.81334,0.42669 -3.88,1.2 -1.06667,0.77335 -1.73334,1.80002 -2,3.08"
     style="font-size:40px;fill:#ffffff;fill-opacity:1"
     id="path3023-8" /><path
     inkscape:connector-curvature="0"
     d="m 248.83357,143.10516 0,4.4 c -0.74669,-0.58665 -1.57335,-1.03998 -2.48,-1.36 -0.88002,-0.34665 -1.82668,-0.53331 -2.84,-0.56 -2.21335,2e-5 -3.98668,0.65335 -5.32,1.96 -1.30668,1.30668 -1.96001,2.97335 -1.96,5 -10e-6,2.34668 0.75999,4.22668 2.28,5.64 1.51999,1.41334 3.65332,2.12001 6.4,2.12 1.35998,1e-5 2.57331,-0.14666 3.64,-0.44 1.09331,-0.29333 2.07998,-0.75999 2.96,-1.4 -1.17336,2.21334 -2.17335,3.57334 -3,4.08 -0.82669,0.50667 -2.34668,0.77334 -4.56,0.8 -2.26668,0 -4.12001,-0.26666 -5.56,-0.8 -1.41334,-0.53333 -2.62667,-1.34666 -3.64,-2.44 -0.90667,-0.90666 -1.58667,-1.95999 -2.04,-3.16 -0.42667,-1.19999 -0.64,-2.47999 -0.64,-3.84 -0.0267,-1.46665 0.22666,-2.82665 0.76,-4.08 0.56,-1.27998 1.30666,-2.38665 2.24,-3.32 1.09333,-1.09331 2.34666,-1.89331 3.76,-2.4 1.43999,-0.50664 3.19999,-0.75998 5.28,-0.76 0.98665,0.0267 1.77332,0.10669 2.36,0.24 0.58665,0.13336 1.37331,0.24002 2.36,0.32"
     style="font-size:40px;fill:#ffffff;fill-opacity:1"
     id="path3025-0" /><path
     inkscape:connector-curvature="0"
     d="m 259.52911,137.14516 1.48,0 0,6.2 4.48,0 c 0.21332,2e-5 0.42665,2e-5 0.64,0 0.21332,-0.0266 0.43998,-0.08 0.68,-0.16 l 0,3.88 c -0.21335,-0.29331 -0.48002,-0.51998 -0.8,-0.68 -0.32002,-0.15998 -0.73335,-0.23998 -1.24,-0.24 l -3.76,0 0,10.16 c -0.0267,1.36001 0.29332,2.41334 0.96,3.16 0.69332,0.72001 1.75999,1.08001 3.2,1.08 0.23998,1e-5 0.47998,-0.0133 0.72,-0.04 0.26665,-0.0533 0.54665,-0.11999 0.84,-0.2 l -2.32,2.92 c -0.24001,0.0267 -0.46668,0.0533 -0.68,0.08 -0.21335,0.0267 -0.41335,0.04 -0.6,0.04 -1.86668,0 -3.32001,-0.57333 -4.36,-1.72 -1.04001,-1.17333 -1.56001,-2.71999 -1.56,-4.64 l 0,-10.84 -2.8,0 0,-1.44 c 1.75999,-0.21331 3.07999,-0.99998 3.96,-2.36 0.90666,-1.38664 1.29332,-3.11997 1.16,-5.2"
     style="font-size:40px;fill:#ffffff;fill-opacity:1"
     id="path3027-4" /><path
     inkscape:connector-curvature="0"
     d="m 271.56839,143.34516 3.08,0 c 0.45333,0.0267 0.84,-0.0133 1.16,-0.12 0.32,-0.10664 0.64,-0.27998 0.96,-0.52 l 0,17.24 c 0,0.66667 0.10666,1.22667 0.32,1.68 0.21333,0.42667 0.57333,0.8 1.08,1.12 l -6.6,0 c 0.48,-0.32 0.82667,-0.69333 1.04,-1.12 0.24,-0.45333 0.36,-1.01333 0.36,-1.68 l 0,-13.8 c 0,-0.63998 -0.12,-1.17331 -0.36,-1.6 -0.21333,-0.45331 -0.56,-0.85331 -1.04,-1.2 m 0.52,-5.36 c 0,-0.66664 0.25333,-1.2533 0.76,-1.76 0.50667,-0.50664 1.10667,-0.7733 1.8,-0.8 0.66666,3e-5 1.25333,0.2667 1.76,0.8 0.53333,0.5067 0.8,1.09336 0.8,1.76 0,0.69336 -0.26667,1.29336 -0.8,1.8 -0.50667,0.50669 -1.09334,0.76003 -1.76,0.76 -0.69333,0.0267 -1.29333,-0.21331 -1.8,-0.72 -0.50667,-0.53331 -0.76,-1.14664 -0.76,-1.84"
     style="font-size:40px;fill:#ffffff;fill-opacity:1"
     id="path3029-0" /><path
     inkscape:connector-curvature="0"
     d="m 290.45392,162.74516 -6.6,0 c 0.47999,-0.32 0.82666,-0.69333 1.04,-1.12 0.23999,-0.45333 0.35999,-1.01333 0.36,-1.68 l 0,-13.8 c -10e-6,-0.63998 -0.12001,-1.17331 -0.36,-1.6 -0.21334,-0.45331 -0.56001,-0.85331 -1.04,-1.2 l 3.08,0 c 0.45332,0.0267 0.83999,-0.0133 1.16,-0.12 0.31999,-0.10664 0.63999,-0.27998 0.96,-0.52 l 0,2.68 c 0.47999,-0.87998 1.31999,-1.57331 2.52,-2.08 1.19999,-0.50664 2.43998,-0.75998 3.72,-0.76 2.34665,2e-5 4.15998,0.58669 5.44,1.76 1.30664,1.14669 1.95998,2.66669 1.96,4.56 l 0,11.08 c -2e-5,0.66667 0.10664,1.22667 0.32,1.68 0.21331,0.42667 0.57331,0.8 1.08,1.12 l -6.6,0 c 0.47998,-0.32 0.82665,-0.69333 1.04,-1.12 0.21331,-0.45333 0.33331,-1.01333 0.36,-1.68 l 0,-10 c -2e-5,-1.33332 -0.44002,-2.38665 -1.32,-3.16 -0.88002,-0.79998 -2.06668,-1.19998 -3.56,-1.2 -1.57335,2e-5 -2.80001,0.38669 -3.68,1.16 -0.85334,0.74668 -1.28001,1.89335 -1.28,3.44 l 0,9.76 c -1e-5,0.66667 0.10666,1.22667 0.32,1.68 0.21332,0.42667 0.57332,0.8 1.08,1.12"
     style="font-size:40px;fill:#ffffff;fill-opacity:1"
     id="path3031-5" /><path
     inkscape:connector-curvature="0"
     d="m 309.93695,149.70516 c 0,-1.99998 0.84,-3.69331 2.52,-5.08 1.70666,-1.38664 4.02666,-2.07998 6.96,-2.08 0.42666,2e-5 0.99999,0.0267 1.72,0.08 0.74666,0.0534 1.01332,0.0667 0.8,0.04 0.66666,0.0534 1.26665,0.0934 1.8,0.12 0.55999,0.0267 1.07999,0.0267 1.56,0 0.93332,2e-5 1.91998,-0.04 2.96,-0.12 1.06665,-0.10664 2.13331,-0.26664 3.2,-0.48 l -0.92,2.32 c -0.24002,0.58669 -0.60002,0.92002 -1.08,1 -0.45335,0.08 -1.22668,0.04 -2.32,-0.12 l -2.24,-0.28 c 0.98665,0.56002 1.74665,1.29335 2.28,2.2 0.55998,0.88002 0.83998,1.86668 0.84,2.96 -0.0267,1.70668 -0.64002,3.13335 -1.84,4.28 -1.17335,1.14668 -2.92001,1.88001 -5.24,2.2 -1.60001,0.21334 -2.58667,0.42668 -2.96,0.64 -0.37334,0.18667 -0.56001,0.41334 -0.56,0.68 -0.0267,0.21334 0.0667,0.41334 0.28,0.6 0.23999,0.16001 0.54666,0.22667 0.92,0.2 l 1.6,0 c 4.21332,1e-5 7.14665,0.54667 8.8,1.64 1.65331,1.06667 2.47998,2.54667 2.48,4.44 -2e-5,2.18667 -1.14669,3.98666 -3.44,5.4 -2.29335,1.41333 -5.13334,2.11999 -8.52,2.12 -3.49334,-0.0267 -6.29334,-0.60001 -8.4,-1.72 -2.08,-1.12 -3.13333,-2.50667 -3.16,-4.16 0,-1.01333 0.37334,-1.84 1.12,-2.48 0.77333,-0.64 1.82667,-0.96 3.16,-0.96 0.37333,0 0.73333,0.04 1.08,0.12 0.37333,0.10667 0.74666,0.26667 1.12,0.48 -0.56,0.0267 -1,0.22667 -1.32,0.6 -0.29333,0.37333 -0.44,0.84 -0.44,1.4 0,1.12 0.57333,2.06666 1.72,2.84 1.17333,0.8 2.79999,1.21333 4.88,1.24 2.23999,0 4.06665,-0.4 5.48,-1.2 1.41332,-0.8 2.11998,-1.92 2.12,-3.36 -2e-5,-1.22666 -0.58668,-2.16 -1.76,-2.8 -1.17335,-0.64 -2.93334,-0.96 -5.28,-0.96 -0.69334,0 -1.52001,0.0267 -2.48,0.08 -0.96,0.0267 -1.58667,0.04 -1.88,0.04 -0.74667,0 -1.32,-0.10666 -1.72,-0.32 -0.4,-0.24 -0.76,-0.74666 -1.08,-1.52 -0.13333,-0.23999 -0.21333,-0.42666 -0.24,-0.56 -0.0267,-0.15999 -0.04,-0.30666 -0.04,-0.44 0,-0.23999 0.0667,-0.46666 0.2,-0.68 0.16,-0.21333 0.42667,-0.41333 0.8,-0.6 l 2.36,-1.16 c -1.76,-0.26666 -3.17333,-0.99999 -4.24,-2.2 -1.06667,-1.19999 -1.6,-2.67999 -1.6,-4.44 m 8.72,-4.48 c -1.33334,2e-5 -2.42667,0.37335 -3.28,1.12 -0.85334,0.72002 -1.28,1.64002 -1.28,2.76 -0.0267,1.41335 0.46666,2.62668 1.48,3.64 1.03999,1.01335 2.30666,1.50668 3.8,1.48 1.30666,0.0267 2.37332,-0.35999 3.2,-1.16 0.85332,-0.79999 1.27999,-1.83999 1.28,-3.12 -10e-6,-1.30665 -0.52001,-2.41332 -1.56,-3.32 -1.01334,-0.90665 -2.22668,-1.37331 -3.64,-1.4"
     style="font-size:40px;fill:#ffffff;fill-opacity:1"
     id="path3033-7" /><path
     inkscape:connector-curvature="0"
     d="m 350.77373,134.74516 c 1.41333,3e-5 2.47999,3e-5 3.2,0 0.71999,-0.0266 1.41332,-0.0533 2.08,-0.08 2.10665,-0.0266 3.18665,-0.04 3.24,-0.04 0.08,-0.0266 0.15999,-0.04 0.24,-0.04 3.25332,0.0267 5.73331,0.68003 7.44,1.96 1.73331,1.28003 2.59998,3.05336 2.6,5.32 -2e-5,1.70669 -0.64002,3.24002 -1.92,4.6 -1.25335,1.33335 -2.92002,2.16002 -5,2.48 2.05331,3.25335 4.29331,6.20001 6.72,8.84 2.45331,2.64001 4.50664,4.29334 6.16,4.96 -1.01336,0.0533 -1.89336,0.10667 -2.64,0.16 -0.72003,0.0533 -1.28003,0.08 -1.68,0.08 -1.68002,0 -3.73336,-1.33333 -6.16,-4 -2.40002,-2.69332 -4.80002,-6.30665 -7.2,-10.84 1.99999,-0.18665 3.67998,-0.79998 5.04,-1.84 1.38665,-1.06665 2.07998,-2.42664 2.08,-4.08 -2e-5,-1.54664 -0.49335,-2.70664 -1.48,-3.48 -0.96002,-0.79997 -2.33335,-1.19997 -4.12,-1.2 -0.61335,3e-5 -1.12001,0.0267 -1.52,0.08 -0.40001,0.0534 -0.78668,0.12003 -1.16,0.2 l 0,20.92 c -0.0267,1.01334 0.10666,1.82667 0.4,2.44 0.29332,0.58667 0.77332,1.10667 1.44,1.56 l -7.76,0 c 0.63999,-0.45333 1.09333,-0.97333 1.36,-1.56 0.29333,-0.61333 0.45333,-1.42666 0.48,-2.44 l 0,-20 c -0.0267,-0.98664 -0.18667,-1.7733 -0.48,-2.36 -0.26667,-0.6133 -0.72001,-1.15997 -1.36,-1.64"
     style="font-size:40px;fill:#ffffff;fill-opacity:1"
     id="path3035-0" /><path
     inkscape:connector-curvature="0"
     d="m 378.17675,147.06516 2.52,-4.16 c 0.63999,-0.10664 1.26666,-0.18664 1.88,-0.24 0.61332,-0.08 1.19999,-0.11998 1.76,-0.12 2.39999,2e-5 4.19998,0.56002 5.4,1.68 1.22665,1.12002 1.85332,2.85335 1.88,5.2 l 0,7.8 c -0.0267,0.98667 0.18665,1.70667 0.64,2.16 0.45331,0.42667 1.19998,0.65334 2.24,0.68 0.10665,0.0267 0.22665,0.04 0.36,0.04 0.13331,10e-6 0.26664,-0.0133 0.4,-0.04 l -1.92,2.68 c -0.08,0 -0.17335,0 -0.28,0 -0.08,0 -0.18669,0 -0.32,0 -1.78668,0 -3.05335,-0.4 -3.8,-1.2 -0.74668,-0.8 -1.12001,-1.89333 -1.12,-3.28 l 0,-6.28 c -0.37335,0.24001 -0.74668,0.44001 -1.12,0.6 -0.37335,0.16001 -1.41335,0.44001 -3.12,0.84 -1.49334,0.37335 -2.54667,0.84001 -3.16,1.4 -0.58667,0.53334 -0.88001,1.24001 -0.88,2.12 -0.0267,1.01334 0.30666,1.82667 1,2.44 0.71999,0.61334 1.73332,0.92001 3.04,0.92 0.53332,1e-5 1.09332,-0.04 1.68,-0.12 0.58665,-0.08 1.18665,-0.21333 1.8,-0.4 l -2.56,3.2 c -0.42668,0.10667 -0.85334,0.18667 -1.28,0.24 -0.42668,0.08 -0.85334,0.12 -1.28,0.12 -1.94667,0 -3.52,-0.57333 -4.72,-1.72 -1.17334,-1.17333 -1.76,-2.70666 -1.76,-4.6 0,-1.38666 0.41333,-2.53332 1.24,-3.44 0.82666,-0.90665 2.67999,-1.69332 5.56,-2.36 2.61332,-0.58665 4.15999,-1.07998 4.64,-1.48 0.50665,-0.42665 0.75999,-0.97332 0.76,-1.64 -10e-6,-0.77331 -0.32001,-1.38665 -0.96,-1.84 -0.64001,-0.45331 -1.54668,-0.67998 -2.72,-0.68 -0.98668,2e-5 -1.98668,0.13335 -3,0.4 -1.01334,0.24002 -1.94667,0.60002 -2.8,1.08"
     style="font-size:40px;fill:#ffffff;fill-opacity:1"
     id="path3037-0" /><path
     inkscape:connector-curvature="0"
     d="m 398.8873,143.34516 3.08,0 c 0.45333,0.0267 0.84,-0.0133 1.16,-0.12 0.32,-0.10664 0.64,-0.27998 0.96,-0.52 l 0,17.24 c 0,0.66667 0.10666,1.22667 0.32,1.68 0.21333,0.42667 0.57333,0.8 1.08,1.12 l -6.6,0 c 0.48,-0.32 0.82667,-0.69333 1.04,-1.12 0.24,-0.45333 0.36,-1.01333 0.36,-1.68 l 0,-13.8 c 0,-0.63998 -0.12,-1.17331 -0.36,-1.6 -0.21333,-0.45331 -0.56,-0.85331 -1.04,-1.2 m 0.52,-5.36 c 0,-0.66664 0.25333,-1.2533 0.76,-1.76 0.50667,-0.50664 1.10666,-0.7733 1.8,-0.8 0.66666,3e-5 1.25333,0.2667 1.76,0.8 0.53333,0.5067 0.79999,1.09336 0.8,1.76 -1e-5,0.69336 -0.26667,1.29336 -0.8,1.8 -0.50667,0.50669 -1.09334,0.76003 -1.76,0.76 -0.69334,0.0267 -1.29333,-0.21331 -1.8,-0.72 -0.50667,-0.53331 -0.76,-1.14664 -0.76,-1.84"
     style="font-size:40px;fill:#ffffff;fill-opacity:1"
     id="path3039-5" /><path
     inkscape:connector-curvature="0"
     d="m 426.33282,134.74516 3.08,0 c 0.45332,0.0267 0.83998,-0.0133 1.16,-0.12 0.31998,-0.10664 0.63998,-0.27997 0.96,-0.52 l 0,25.84 c -2e-5,0.66667 0.10665,1.22667 0.32,1.68 0.21332,0.42667 0.57331,0.8 1.08,1.12 l -5.2,0 0,-10.8 c -1e-5,-1.99998 -0.58668,-3.55998 -1.76,-4.68 -1.17334,-1.11998 -2.60001,-1.67998 -4.28,-1.68 -1.84001,2e-5 -3.38667,0.65335 -4.64,1.96 -1.22667,1.28002 -1.84,2.94668 -1.84,5 0,2.24001 0.69333,4.09334 2.08,5.56 1.38666,1.46667 3.11999,2.20001 5.2,2.2 0.90666,1e-5 1.65332,-0.08 2.24,-0.24 0.61332,-0.18666 1.19999,-0.47999 1.76,-0.88 l -1.76,3 c -0.32001,0.48 -0.70668,0.78667 -1.16,0.92 -0.45334,0.16 -1.10668,0.24 -1.96,0.24 -3.12,-0.0267 -5.66667,-1.01333 -7.64,-2.96 -1.94666,-1.94666 -2.92,-4.41332 -2.92,-7.4 0,-3.03998 0.94667,-5.53332 2.84,-7.48 1.92,-1.94664 4.30666,-2.93331 7.16,-2.96 1.25333,2e-5 2.42666,0.21336 3.52,0.64 1.11999,0.40002 2.17332,0.98669 3.16,1.76 l 0,-7.4 c -1e-5,-0.63997 -0.12001,-1.1733 -0.36,-1.6 -0.21335,-0.4533 -0.56001,-0.8533 -1.04,-1.2"
     style="font-size:40px;fill:#ffffff;fill-opacity:1"
     id="path3041-6" /><path
     inkscape:connector-curvature="0"
     d="m 458.58022,152.46516 -16.12,0 c -0.10667,2.26668 0.56,4.14668 2,5.64 1.43999,1.46667 3.59999,2.20001 6.48,2.2 1.49332,0.0267 2.87998,-0.11999 4.16,-0.44 1.27998,-0.34666 2.53331,-0.86666 3.76,-1.56 l -2.64,4.16 c -1.04002,0.32 -2.04002,0.54667 -3,0.68 -0.96001,0.13334 -2.00001,0.2 -3.12,0.2 -3.60001,0 -6.46667,-0.92 -8.6,-2.76 -2.13333,-1.83999 -3.2,-4.42666 -3.2,-7.76 -0.0267,-2.98665 0.92,-5.43998 2.84,-7.36 1.94666,-1.94664 4.54666,-2.91998 7.8,-2.92 3.06665,2e-5 5.45332,0.94669 7.16,2.84 1.73331,1.86669 2.55998,4.22668 2.48,7.08 m -15.72,-2.6 11.16,0 c -0.13335,-1.30665 -0.68001,-2.34665 -1.64,-3.12 -0.96001,-0.77331 -2.17334,-1.15998 -3.64,-1.16 -1.52001,0.0267 -2.81334,0.42669 -3.88,1.2 -1.06667,0.77335 -1.73334,1.80002 -2,3.08"
     style="font-size:40px;fill:#ffffff;fill-opacity:1"
     id="path3043-7" /><path
     inkscape:connector-curvature="0"
     d="m 470.74702,162.74516 -6.8,0 c 0.48,-0.32 0.82667,-0.69333 1.04,-1.12 0.24,-0.45333 0.36,-1.01333 0.36,-1.68 l 0,-13.8 c 0,-0.63998 -0.12,-1.17331 -0.36,-1.6 -0.21333,-0.45331 -0.56,-0.85331 -1.04,-1.2 l 2.92,0 c 0.42667,0.0267 0.8,2e-5 1.12,-0.08 0.32,-0.10664 0.64,-0.29331 0.96,-0.56 l 0,3.2 c 0.64,-1.01331 1.41333,-1.82665 2.32,-2.44 0.93333,-0.61331 1.95999,-0.91998 3.08,-0.92 0.21333,0.0267 0.43999,0.0534 0.68,0.08 0.23999,2e-5 0.47999,0.0267 0.72,0.08 l 0,3.92 c -0.34667,-0.21331 -0.69334,-0.37331 -1.04,-0.48 -0.34667,-0.10665 -0.73334,-0.15998 -1.16,-0.16 -1.38667,0.0267 -2.46667,0.52002 -3.24,1.48 -0.77334,0.93335 -1.16,2.34668 -1.16,4.24 l 0,8.24 c 0,0.66667 0.12,1.22667 0.36,1.68 0.26666,0.42667 0.68,0.8 1.24,1.12"
     style="font-size:40px;fill:#ffffff;fill-opacity:1"
     id="path3045-8" /><path
     inkscape:connector-curvature="0"
     d="m 493.50442,143.26516 0,3.56 c -0.98668,-0.53331 -1.93334,-0.91998 -2.84,-1.16 -0.88001,-0.26665 -1.81334,-0.41331 -2.8,-0.44 -1.09334,2e-5 -1.96001,0.21335 -2.6,0.64 -0.61334,0.40002 -0.92,0.93335 -0.92,1.6 0,0.53335 0.24,1.01335 0.72,1.44 0.50666,0.42668 1.93333,1.04002 4.28,1.84 2.50666,0.88001 4.14665,1.78668 4.92,2.72 0.79999,0.90668 1.21332,1.97334 1.24,3.2 -10e-6,2.16001 -0.81335,3.81334 -2.44,4.96 -1.62668,1.12 -3.80001,1.69334 -6.52,1.72 -1.06667,0 -2.09334,-0.0933 -3.08,-0.28 -0.98667,-0.18666 -2,-0.48 -3.04,-0.88 l -1.52,-4.2 c 1.30667,0.85334 2.62667,1.52001 3.96,2 1.36,0.45334 2.58666,0.68001 3.68,0.68 1.59999,0.0267 2.82666,-0.22666 3.68,-0.76 0.87999,-0.55999 1.31999,-1.26666 1.32,-2.12 -10e-6,-0.61332 -0.22668,-1.14666 -0.68,-1.6 -0.45334,-0.47999 -1.96001,-1.22666 -4.52,-2.24 -2.48,-0.95999 -4.09333,-1.85332 -4.84,-2.68 -0.74667,-0.85332 -1.12,-1.86665 -1.12,-3.04 0,-1.73331 0.65333,-3.10665 1.96,-4.12 1.30666,-1.01331 3.28,-1.53331 5.92,-1.56 0.95999,2e-5 1.85332,0.0667 2.68,0.2 0.85332,0.10669 1.70665,0.28002 2.56,0.52"
     style="font-size:40px;fill:#ffffff;fill-opacity:1"
     id="path3047-0" /></g><g
   style="font-size:48px;font-style:normal;font-variant:normal;font-weight:normal;font-stretch:normal;line-height:125%;letter-spacing:0px;word-spacing:0px;fill:#876d1c;fill-opacity:1;stroke:none;font-family:FrizQuadrataCTT;-inkscape-font-specification:FrizQuadrataCTT"
   transform="matrix(0.68369032,0,0,0.67316635,93.871876,40.152753)"
   id="g3013"><path
     d="m 120.64652,135.22516 0,4.88 c -1.09336,-0.74664 -2.32002,-1.35997 -3.68,-1.84 -1.36002,-0.47997 -2.77335,-0.71997 -4.24,-0.72 -2.82668,3e-5 -5.28001,0.92003 -7.36,2.76 -2.08001,1.81336 -3.12001,4.33335 -3.12,7.56 -1e-5,3.68001 1.05333,6.61334 3.16,8.8 2.10665,2.18667 4.86665,3.28001 8.28,3.28 1.97331,1e-5 3.73331,-0.23999 5.28,-0.72 1.57331,-0.47999 2.94664,-1.22666 4.12,-2.24 l -2.72,5.36 c -1.17336,0.34667 -2.30669,0.58667 -3.4,0.72 -1.06669,0.16 -2.26669,0.25334 -3.6,0.28 -4.96001,0 -8.82668,-1.33333 -11.6,-4 -2.773337,-2.69332 -4.146669,-6.15999 -4.120001,-10.4 -10e-7,-4.07998 1.373331,-7.55998 4.120001,-10.44 2.77332,-2.87997 6.58665,-4.3333 11.44,-4.36 0.77331,3e-5 1.51998,0.04 2.24,0.12 0.71998,0.08 1.70664,0.25336 2.96,0.52 0.53331,0.13336 0.94664,0.24003 1.24,0.32 0.31998,0.0534 0.65331,0.0934 1,0.12"
     style="font-size:40px;fill:#876d1c;fill-opacity:1"
     id="path3015"
     inkscape:connector-curvature="0" /><path
     d="m 138.8208,142.54516 c 3.30665,0.0267 5.95998,1.06669 7.96,3.12 1.99998,2.05335 2.99998,4.48002 3,7.28 -2e-5,3.01334 -1.09335,5.49334 -3.28,7.44 -2.16001,1.94667 -4.84001,2.93334 -8.04,2.96 -3.30667,0 -5.96,-1.02666 -7.96,-3.08 -2,-2.05333 -2.98666,-4.49332 -2.96,-7.32 0,-2.98665 1.08,-5.46665 3.24,-7.44 2.16,-1.97331 4.83999,-2.95998 8.04,-2.96 m -0.24,3.04 c -2.08001,2e-5 -3.74667,0.68002 -5,2.04 -1.25334,1.33335 -1.88,3.10668 -1.88,5.32 0,2.02668 0.61333,3.76001 1.84,5.2 1.22666,1.44001 2.95999,2.16001 5.2,2.16 2.05332,0.0267 3.70665,-0.62666 4.96,-1.96 1.27998,-1.35999 1.91998,-3.15999 1.92,-5.4 -0.0267,-1.99999 -0.65335,-3.71998 -1.88,-5.16 -1.22668,-1.46665 -2.94668,-2.19998 -5.16,-2.2"
     style="font-size:40px;fill:#876d1c;fill-opacity:1"
     id="path3017"
     inkscape:connector-curvature="0" /><path
     d="m 161.74071,162.74516 -6.6,0 c 0.48,-0.32 0.82667,-0.69333 1.04,-1.12 0.24,-0.45333 0.36,-1.01333 0.36,-1.68 l 0,-13.8 c 0,-0.63998 -0.12,-1.17331 -0.36,-1.6 -0.21333,-0.45331 -0.56,-0.85331 -1.04,-1.2 l 3.08,0 c 0.45333,0.0267 0.84,-0.0133 1.16,-0.12 0.32,-0.10664 0.64,-0.27998 0.96,-0.52 l 0,2.68 c 0.48,-0.87998 1.31999,-1.57331 2.52,-2.08 1.19999,-0.50664 2.43999,-0.75998 3.72,-0.76 2.34665,2e-5 4.15999,0.58669 5.44,1.76 1.30665,1.14669 1.95998,2.66669 1.96,4.56 l 0,11.08 c -2e-5,0.66667 0.10665,1.22667 0.32,1.68 0.21331,0.42667 0.57331,0.8 1.08,1.12 l -6.6,0 c 0.47999,-0.32 0.82665,-0.69333 1.04,-1.12 0.21332,-0.45333 0.33332,-1.01333 0.36,-1.68 l 0,-10 c -1e-5,-1.33332 -0.44001,-2.38665 -1.32,-3.16 -0.88001,-0.79998 -2.06668,-1.19998 -3.56,-1.2 -1.57334,2e-5 -2.80001,0.38669 -3.68,1.16 -0.85334,0.74668 -1.28,1.89335 -1.28,3.44 l 0,9.76 c 0,0.66667 0.10666,1.22667 0.32,1.68 0.21333,0.42667 0.57333,0.8 1.08,1.12"
     style="font-size:40px;fill:#876d1c;fill-opacity:1"
     id="path3019"
     inkscape:connector-curvature="0" /><path
     d="m 187.46375,162.74516 -6.6,0 c 0.48,-0.32 0.82666,-0.69333 1.04,-1.12 0.24,-0.45333 0.36,-1.01333 0.36,-1.68 l 0,-13.8 c 0,-0.63998 -0.12,-1.17331 -0.36,-1.6 -0.21334,-0.45331 -0.56,-0.85331 -1.04,-1.2 l 3.08,0 c 0.45333,0.0267 0.83999,-0.0133 1.16,-0.12 0.31999,-0.10664 0.63999,-0.27998 0.96,-0.52 l 0,2.68 c 0.47999,-0.87998 1.31999,-1.57331 2.52,-2.08 1.19999,-0.50664 2.43999,-0.75998 3.72,-0.76 2.34665,2e-5 4.15998,0.58669 5.44,1.76 1.30665,1.14669 1.95998,2.66669 1.96,4.56 l 0,11.08 c -2e-5,0.66667 0.10665,1.22667 0.32,1.68 0.21331,0.42667 0.57331,0.8 1.08,1.12 l -6.6,0 c 0.47998,-0.32 0.82665,-0.69333 1.04,-1.12 0.21332,-0.45333 0.33332,-1.01333 0.36,-1.68 l 0,-10 c -2e-5,-1.33332 -0.44002,-2.38665 -1.32,-3.16 -0.88001,-0.79998 -2.06668,-1.19998 -3.56,-1.2 -1.57334,2e-5 -2.80001,0.38669 -3.68,1.16 -0.85334,0.74668 -1.28001,1.89335 -1.28,3.44 l 0,9.76 c -1e-5,0.66667 0.10666,1.22667 0.32,1.68 0.21333,0.42667 0.57333,0.8 1.08,1.12"
     style="font-size:40px;fill:#876d1c;fill-opacity:1"
     id="path3021"
     inkscape:connector-curvature="0" /><path
     d="m 226.78678,152.46516 -16.12,0 c -0.10667,2.26668 0.55999,4.14668 2,5.64 1.43999,1.46667 3.59999,2.20001 6.48,2.2 1.49332,0.0267 2.87998,-0.11999 4.16,-0.44 1.27998,-0.34666 2.53331,-0.86666 3.76,-1.56 l -2.64,4.16 c -1.04002,0.32 -2.04002,0.54667 -3,0.68 -0.96002,0.13334 -2.00001,0.2 -3.12,0.2 -3.60001,0 -6.46667,-0.92 -8.6,-2.76 -2.13334,-1.83999 -3.2,-4.42666 -3.2,-7.76 -0.0267,-2.98665 0.92,-5.43998 2.84,-7.36 1.94666,-1.94664 4.54666,-2.91998 7.8,-2.92 3.06665,2e-5 5.45332,0.94669 7.16,2.84 1.73331,1.86669 2.55998,4.22668 2.48,7.08 m -15.72,-2.6 11.16,0 c -0.13335,-1.30665 -0.68002,-2.34665 -1.64,-3.12 -0.96001,-0.77331 -2.17335,-1.15998 -3.64,-1.16 -1.52001,0.0267 -2.81334,0.42669 -3.88,1.2 -1.06667,0.77335 -1.73334,1.80002 -2,3.08"
     style="font-size:40px;fill:#876d1c;fill-opacity:1"
     id="path3023"
     inkscape:connector-curvature="0" /><path
     d="m 248.83357,143.10516 0,4.4 c -0.74669,-0.58665 -1.57335,-1.03998 -2.48,-1.36 -0.88002,-0.34665 -1.82668,-0.53331 -2.84,-0.56 -2.21335,2e-5 -3.98668,0.65335 -5.32,1.96 -1.30668,1.30668 -1.96001,2.97335 -1.96,5 -10e-6,2.34668 0.75999,4.22668 2.28,5.64 1.51999,1.41334 3.65332,2.12001 6.4,2.12 1.35998,1e-5 2.57331,-0.14666 3.64,-0.44 1.09331,-0.29333 2.07998,-0.75999 2.96,-1.4 -1.17336,2.21334 -2.17335,3.57334 -3,4.08 -0.82669,0.50667 -2.34668,0.77334 -4.56,0.8 -2.26668,0 -4.12001,-0.26666 -5.56,-0.8 -1.41334,-0.53333 -2.62667,-1.34666 -3.64,-2.44 -0.90667,-0.90666 -1.58667,-1.95999 -2.04,-3.16 -0.42667,-1.19999 -0.64,-2.47999 -0.64,-3.84 -0.0267,-1.46665 0.22666,-2.82665 0.76,-4.08 0.56,-1.27998 1.30666,-2.38665 2.24,-3.32 1.09333,-1.09331 2.34666,-1.89331 3.76,-2.4 1.43999,-0.50664 3.19999,-0.75998 5.28,-0.76 0.98665,0.0267 1.77332,0.10669 2.36,0.24 0.58665,0.13336 1.37331,0.24002 2.36,0.32"
     style="font-size:40px;fill:#876d1c;fill-opacity:1"
     id="path3025"
     inkscape:connector-curvature="0" /><path
     d="m 259.52911,137.14516 1.48,0 0,6.2 4.48,0 c 0.21332,2e-5 0.42665,2e-5 0.64,0 0.21332,-0.0266 0.43998,-0.08 0.68,-0.16 l 0,3.88 c -0.21335,-0.29331 -0.48002,-0.51998 -0.8,-0.68 -0.32002,-0.15998 -0.73335,-0.23998 -1.24,-0.24 l -3.76,0 0,10.16 c -0.0267,1.36001 0.29332,2.41334 0.96,3.16 0.69332,0.72001 1.75999,1.08001 3.2,1.08 0.23998,1e-5 0.47998,-0.0133 0.72,-0.04 0.26665,-0.0533 0.54665,-0.11999 0.84,-0.2 l -2.32,2.92 c -0.24001,0.0267 -0.46668,0.0533 -0.68,0.08 -0.21335,0.0267 -0.41335,0.04 -0.6,0.04 -1.86668,0 -3.32001,-0.57333 -4.36,-1.72 -1.04001,-1.17333 -1.56001,-2.71999 -1.56,-4.64 l 0,-10.84 -2.8,0 0,-1.44 c 1.75999,-0.21331 3.07999,-0.99998 3.96,-2.36 0.90666,-1.38664 1.29332,-3.11997 1.16,-5.2"
     style="font-size:40px;fill:#876d1c;fill-opacity:1"
     id="path3027"
     inkscape:connector-curvature="0" /><path
     d="m 271.56839,143.34516 3.08,0 c 0.45333,0.0267 0.84,-0.0133 1.16,-0.12 0.32,-0.10664 0.64,-0.27998 0.96,-0.52 l 0,17.24 c 0,0.66667 0.10666,1.22667 0.32,1.68 0.21333,0.42667 0.57333,0.8 1.08,1.12 l -6.6,0 c 0.48,-0.32 0.82667,-0.69333 1.04,-1.12 0.24,-0.45333 0.36,-1.01333 0.36,-1.68 l 0,-13.8 c 0,-0.63998 -0.12,-1.17331 -0.36,-1.6 -0.21333,-0.45331 -0.56,-0.85331 -1.04,-1.2 m 0.52,-5.36 c 0,-0.66664 0.25333,-1.2533 0.76,-1.76 0.50667,-0.50664 1.10667,-0.7733 1.8,-0.8 0.66666,3e-5 1.25333,0.2667 1.76,0.8 0.53333,0.5067 0.8,1.09336 0.8,1.76 0,0.69336 -0.26667,1.29336 -0.8,1.8 -0.50667,0.50669 -1.09334,0.76003 -1.76,0.76 -0.69333,0.0267 -1.29333,-0.21331 -1.8,-0.72 -0.50667,-0.53331 -0.76,-1.14664 -0.76,-1.84"
     style="font-size:40px;fill:#876d1c;fill-opacity:1"
     id="path3029"
     inkscape:connector-curvature="0" /><path
     d="m 290.45392,162.74516 -6.6,0 c 0.47999,-0.32 0.82666,-0.69333 1.04,-1.12 0.23999,-0.45333 0.35999,-1.01333 0.36,-1.68 l 0,-13.8 c -10e-6,-0.63998 -0.12001,-1.17331 -0.36,-1.6 -0.21334,-0.45331 -0.56001,-0.85331 -1.04,-1.2 l 3.08,0 c 0.45332,0.0267 0.83999,-0.0133 1.16,-0.12 0.31999,-0.10664 0.63999,-0.27998 0.96,-0.52 l 0,2.68 c 0.47999,-0.87998 1.31999,-1.57331 2.52,-2.08 1.19999,-0.50664 2.43998,-0.75998 3.72,-0.76 2.34665,2e-5 4.15998,0.58669 5.44,1.76 1.30664,1.14669 1.95998,2.66669 1.96,4.56 l 0,11.08 c -2e-5,0.66667 0.10664,1.22667 0.32,1.68 0.21331,0.42667 0.57331,0.8 1.08,1.12 l -6.6,0 c 0.47998,-0.32 0.82665,-0.69333 1.04,-1.12 0.21331,-0.45333 0.33331,-1.01333 0.36,-1.68 l 0,-10 c -2e-5,-1.33332 -0.44002,-2.38665 -1.32,-3.16 -0.88002,-0.79998 -2.06668,-1.19998 -3.56,-1.2 -1.57335,2e-5 -2.80001,0.38669 -3.68,1.16 -0.85334,0.74668 -1.28001,1.89335 -1.28,3.44 l 0,9.76 c -1e-5,0.66667 0.10666,1.22667 0.32,1.68 0.21332,0.42667 0.57332,0.8 1.08,1.12"
     style="font-size:40px;fill:#876d1c;fill-opacity:1"
     id="path3031"
     inkscape:connector-curvature="0" /><path
     d="m 309.93695,149.70516 c 0,-1.99998 0.84,-3.69331 2.52,-5.08 1.70666,-1.38664 4.02666,-2.07998 6.96,-2.08 0.42666,2e-5 0.99999,0.0267 1.72,0.08 0.74666,0.0534 1.01332,0.0667 0.8,0.04 0.66666,0.0534 1.26665,0.0934 1.8,0.12 0.55999,0.0267 1.07999,0.0267 1.56,0 0.93332,2e-5 1.91998,-0.04 2.96,-0.12 1.06665,-0.10664 2.13331,-0.26664 3.2,-0.48 l -0.92,2.32 c -0.24002,0.58669 -0.60002,0.92002 -1.08,1 -0.45335,0.08 -1.22668,0.04 -2.32,-0.12 l -2.24,-0.28 c 0.98665,0.56002 1.74665,1.29335 2.28,2.2 0.55998,0.88002 0.83998,1.86668 0.84,2.96 -0.0267,1.70668 -0.64002,3.13335 -1.84,4.28 -1.17335,1.14668 -2.92001,1.88001 -5.24,2.2 -1.60001,0.21334 -2.58667,0.42668 -2.96,0.64 -0.37334,0.18667 -0.56001,0.41334 -0.56,0.68 -0.0267,0.21334 0.0667,0.41334 0.28,0.6 0.23999,0.16001 0.54666,0.22667 0.92,0.2 l 1.6,0 c 4.21332,1e-5 7.14665,0.54667 8.8,1.64 1.65331,1.06667 2.47998,2.54667 2.48,4.44 -2e-5,2.18667 -1.14669,3.98666 -3.44,5.4 -2.29335,1.41333 -5.13334,2.11999 -8.52,2.12 -3.49334,-0.0267 -6.29334,-0.60001 -8.4,-1.72 -2.08,-1.12 -3.13333,-2.50667 -3.16,-4.16 0,-1.01333 0.37334,-1.84 1.12,-2.48 0.77333,-0.64 1.82667,-0.96 3.16,-0.96 0.37333,0 0.73333,0.04 1.08,0.12 0.37333,0.10667 0.74666,0.26667 1.12,0.48 -0.56,0.0267 -1,0.22667 -1.32,0.6 -0.29333,0.37333 -0.44,0.84 -0.44,1.4 0,1.12 0.57333,2.06666 1.72,2.84 1.17333,0.8 2.79999,1.21333 4.88,1.24 2.23999,0 4.06665,-0.4 5.48,-1.2 1.41332,-0.8 2.11998,-1.92 2.12,-3.36 -2e-5,-1.22666 -0.58668,-2.16 -1.76,-2.8 -1.17335,-0.64 -2.93334,-0.96 -5.28,-0.96 -0.69334,0 -1.52001,0.0267 -2.48,0.08 -0.96,0.0267 -1.58667,0.04 -1.88,0.04 -0.74667,0 -1.32,-0.10666 -1.72,-0.32 -0.4,-0.24 -0.76,-0.74666 -1.08,-1.52 -0.13333,-0.23999 -0.21333,-0.42666 -0.24,-0.56 -0.0267,-0.15999 -0.04,-0.30666 -0.04,-0.44 0,-0.23999 0.0667,-0.46666 0.2,-0.68 0.16,-0.21333 0.42667,-0.41333 0.8,-0.6 l 2.36,-1.16 c -1.76,-0.26666 -3.17333,-0.99999 -4.24,-2.2 -1.06667,-1.19999 -1.6,-2.67999 -1.6,-4.44 m 8.72,-4.48 c -1.33334,2e-5 -2.42667,0.37335 -3.28,1.12 -0.85334,0.72002 -1.28,1.64002 -1.28,2.76 -0.0267,1.41335 0.46666,2.62668 1.48,3.64 1.03999,1.01335 2.30666,1.50668 3.8,1.48 1.30666,0.0267 2.37332,-0.35999 3.2,-1.16 0.85332,-0.79999 1.27999,-1.83999 1.28,-3.12 -10e-6,-1.30665 -0.52001,-2.41332 -1.56,-3.32 -1.01334,-0.90665 -2.22668,-1.37331 -3.64,-1.4"
     style="font-size:40px;fill:#876d1c;fill-opacity:1"
     id="path3033"
     inkscape:connector-curvature="0" /><path
     d="m 350.77373,134.74516 c 1.41333,3e-5 2.47999,3e-5 3.2,0 0.71999,-0.0266 1.41332,-0.0533 2.08,-0.08 2.10665,-0.0266 3.18665,-0.04 3.24,-0.04 0.08,-0.0266 0.15999,-0.04 0.24,-0.04 3.25332,0.0267 5.73331,0.68003 7.44,1.96 1.73331,1.28003 2.59998,3.05336 2.6,5.32 -2e-5,1.70669 -0.64002,3.24002 -1.92,4.6 -1.25335,1.33335 -2.92002,2.16002 -5,2.48 2.05331,3.25335 4.29331,6.20001 6.72,8.84 2.45331,2.64001 4.50664,4.29334 6.16,4.96 -1.01336,0.0533 -1.89336,0.10667 -2.64,0.16 -0.72003,0.0533 -1.28003,0.08 -1.68,0.08 -1.68002,0 -3.73336,-1.33333 -6.16,-4 -2.40002,-2.69332 -4.80002,-6.30665 -7.2,-10.84 1.99999,-0.18665 3.67998,-0.79998 5.04,-1.84 1.38665,-1.06665 2.07998,-2.42664 2.08,-4.08 -2e-5,-1.54664 -0.49335,-2.70664 -1.48,-3.48 -0.96002,-0.79997 -2.33335,-1.19997 -4.12,-1.2 -0.61335,3e-5 -1.12001,0.0267 -1.52,0.08 -0.40001,0.0534 -0.78668,0.12003 -1.16,0.2 l 0,20.92 c -0.0267,1.01334 0.10666,1.82667 0.4,2.44 0.29332,0.58667 0.77332,1.10667 1.44,1.56 l -7.76,0 c 0.63999,-0.45333 1.09333,-0.97333 1.36,-1.56 0.29333,-0.61333 0.45333,-1.42666 0.48,-2.44 l 0,-20 c -0.0267,-0.98664 -0.18667,-1.7733 -0.48,-2.36 -0.26667,-0.6133 -0.72001,-1.15997 -1.36,-1.64"
     style="font-size:40px;fill:#876d1c;fill-opacity:1"
     id="path3035"
     inkscape:connector-curvature="0" /><path
     d="m 378.17675,147.06516 2.52,-4.16 c 0.63999,-0.10664 1.26666,-0.18664 1.88,-0.24 0.61332,-0.08 1.19999,-0.11998 1.76,-0.12 2.39999,2e-5 4.19998,0.56002 5.4,1.68 1.22665,1.12002 1.85332,2.85335 1.88,5.2 l 0,7.8 c -0.0267,0.98667 0.18665,1.70667 0.64,2.16 0.45331,0.42667 1.19998,0.65334 2.24,0.68 0.10665,0.0267 0.22665,0.04 0.36,0.04 0.13331,10e-6 0.26664,-0.0133 0.4,-0.04 l -1.92,2.68 c -0.08,0 -0.17335,0 -0.28,0 -0.08,0 -0.18669,0 -0.32,0 -1.78668,0 -3.05335,-0.4 -3.8,-1.2 -0.74668,-0.8 -1.12001,-1.89333 -1.12,-3.28 l 0,-6.28 c -0.37335,0.24001 -0.74668,0.44001 -1.12,0.6 -0.37335,0.16001 -1.41335,0.44001 -3.12,0.84 -1.49334,0.37335 -2.54667,0.84001 -3.16,1.4 -0.58667,0.53334 -0.88001,1.24001 -0.88,2.12 -0.0267,1.01334 0.30666,1.82667 1,2.44 0.71999,0.61334 1.73332,0.92001 3.04,0.92 0.53332,1e-5 1.09332,-0.04 1.68,-0.12 0.58665,-0.08 1.18665,-0.21333 1.8,-0.4 l -2.56,3.2 c -0.42668,0.10667 -0.85334,0.18667 -1.28,0.24 -0.42668,0.08 -0.85334,0.12 -1.28,0.12 -1.94667,0 -3.52,-0.57333 -4.72,-1.72 -1.17334,-1.17333 -1.76,-2.70666 -1.76,-4.6 0,-1.38666 0.41333,-2.53332 1.24,-3.44 0.82666,-0.90665 2.67999,-1.69332 5.56,-2.36 2.61332,-0.58665 4.15999,-1.07998 4.64,-1.48 0.50665,-0.42665 0.75999,-0.97332 0.76,-1.64 -10e-6,-0.77331 -0.32001,-1.38665 -0.96,-1.84 -0.64001,-0.45331 -1.54668,-0.67998 -2.72,-0.68 -0.98668,2e-5 -1.98668,0.13335 -3,0.4 -1.01334,0.24002 -1.94667,0.60002 -2.8,1.08"
     style="font-size:40px;fill:#876d1c;fill-opacity:1"
     id="path3037"
     inkscape:connector-curvature="0" /><path
     d="m 398.8873,143.34516 3.08,0 c 0.45333,0.0267 0.84,-0.0133 1.16,-0.12 0.32,-0.10664 0.64,-0.27998 0.96,-0.52 l 0,17.24 c 0,0.66667 0.10666,1.22667 0.32,1.68 0.21333,0.42667 0.57333,0.8 1.08,1.12 l -6.6,0 c 0.48,-0.32 0.82667,-0.69333 1.04,-1.12 0.24,-0.45333 0.36,-1.01333 0.36,-1.68 l 0,-13.8 c 0,-0.63998 -0.12,-1.17331 -0.36,-1.6 -0.21333,-0.45331 -0.56,-0.85331 -1.04,-1.2 m 0.52,-5.36 c 0,-0.66664 0.25333,-1.2533 0.76,-1.76 0.50667,-0.50664 1.10666,-0.7733 1.8,-0.8 0.66666,3e-5 1.25333,0.2667 1.76,0.8 0.53333,0.5067 0.79999,1.09336 0.8,1.76 -1e-5,0.69336 -0.26667,1.29336 -0.8,1.8 -0.50667,0.50669 -1.09334,0.76003 -1.76,0.76 -0.69334,0.0267 -1.29333,-0.21331 -1.8,-0.72 -0.50667,-0.53331 -0.76,-1.14664 -0.76,-1.84"
     style="font-size:40px;fill:#876d1c;fill-opacity:1"
     id="path3039"
     inkscape:connector-curvature="0" /><path
     d="m 426.33282,134.74516 3.08,0 c 0.45332,0.0267 0.83998,-0.0133 1.16,-0.12 0.31998,-0.10664 0.63998,-0.27997 0.96,-0.52 l 0,25.84 c -2e-5,0.66667 0.10665,1.22667 0.32,1.68 0.21332,0.42667 0.57331,0.8 1.08,1.12 l -5.2,0 0,-10.8 c -1e-5,-1.99998 -0.58668,-3.55998 -1.76,-4.68 -1.17334,-1.11998 -2.60001,-1.67998 -4.28,-1.68 -1.84001,2e-5 -3.38667,0.65335 -4.64,1.96 -1.22667,1.28002 -1.84,2.94668 -1.84,5 0,2.24001 0.69333,4.09334 2.08,5.56 1.38666,1.46667 3.11999,2.20001 5.2,2.2 0.90666,1e-5 1.65332,-0.08 2.24,-0.24 0.61332,-0.18666 1.19999,-0.47999 1.76,-0.88 l -1.76,3 c -0.32001,0.48 -0.70668,0.78667 -1.16,0.92 -0.45334,0.16 -1.10668,0.24 -1.96,0.24 -3.12,-0.0267 -5.66667,-1.01333 -7.64,-2.96 -1.94666,-1.94666 -2.92,-4.41332 -2.92,-7.4 0,-3.03998 0.94667,-5.53332 2.84,-7.48 1.92,-1.94664 4.30666,-2.93331 7.16,-2.96 1.25333,2e-5 2.42666,0.21336 3.52,0.64 1.11999,0.40002 2.17332,0.98669 3.16,1.76 l 0,-7.4 c -1e-5,-0.63997 -0.12001,-1.1733 -0.36,-1.6 -0.21335,-0.4533 -0.56001,-0.8533 -1.04,-1.2"
     style="font-size:40px;fill:#876d1c;fill-opacity:1"
     id="path3041"
     inkscape:connector-curvature="0" /><path
     d="m 458.58022,152.46516 -16.12,0 c -0.10667,2.26668 0.56,4.14668 2,5.64 1.43999,1.46667 3.59999,2.20001 6.48,2.2 1.49332,0.0267 2.87998,-0.11999 4.16,-0.44 1.27998,-0.34666 2.53331,-0.86666 3.76,-1.56 l -2.64,4.16 c -1.04002,0.32 -2.04002,0.54667 -3,0.68 -0.96001,0.13334 -2.00001,0.2 -3.12,0.2 -3.60001,0 -6.46667,-0.92 -8.6,-2.76 -2.13333,-1.83999 -3.2,-4.42666 -3.2,-7.76 -0.0267,-2.98665 0.92,-5.43998 2.84,-7.36 1.94666,-1.94664 4.54666,-2.91998 7.8,-2.92 3.06665,2e-5 5.45332,0.94669 7.16,2.84 1.73331,1.86669 2.55998,4.22668 2.48,7.08 m -15.72,-2.6 11.16,0 c -0.13335,-1.30665 -0.68001,-2.34665 -1.64,-3.12 -0.96001,-0.77331 -2.17334,-1.15998 -3.64,-1.16 -1.52001,0.0267 -2.81334,0.42669 -3.88,1.2 -1.06667,0.77335 -1.73334,1.80002 -2,3.08"
     style="font-size:40px;fill:#876d1c;fill-opacity:1"
     id="path3043"
     inkscape:connector-curvature="0" /><path
     d="m 470.74702,162.74516 -6.8,0 c 0.48,-0.32 0.82667,-0.69333 1.04,-1.12 0.24,-0.45333 0.36,-1.01333 0.36,-1.68 l 0,-13.8 c 0,-0.63998 -0.12,-1.17331 -0.36,-1.6 -0.21333,-0.45331 -0.56,-0.85331 -1.04,-1.2 l 2.92,0 c 0.42667,0.0267 0.8,2e-5 1.12,-0.08 0.32,-0.10664 0.64,-0.29331 0.96,-0.56 l 0,3.2 c 0.64,-1.01331 1.41333,-1.82665 2.32,-2.44 0.93333,-0.61331 1.95999,-0.91998 3.08,-0.92 0.21333,0.0267 0.43999,0.0534 0.68,0.08 0.23999,2e-5 0.47999,0.0267 0.72,0.08 l 0,3.92 c -0.34667,-0.21331 -0.69334,-0.37331 -1.04,-0.48 -0.34667,-0.10665 -0.73334,-0.15998 -1.16,-0.16 -1.38667,0.0267 -2.46667,0.52002 -3.24,1.48 -0.77334,0.93335 -1.16,2.34668 -1.16,4.24 l 0,8.24 c 0,0.66667 0.12,1.22667 0.36,1.68 0.26666,0.42667 0.68,0.8 1.24,1.12"
     style="font-size:40px;fill:#876d1c;fill-opacity:1"
     id="path3045"
     inkscape:connector-curvature="0" /><path
     d="m 493.50442,143.26516 0,3.56 c -0.98668,-0.53331 -1.93334,-0.91998 -2.84,-1.16 -0.88001,-0.26665 -1.81334,-0.41331 -2.8,-0.44 -1.09334,2e-5 -1.96001,0.21335 -2.6,0.64 -0.61334,0.40002 -0.92,0.93335 -0.92,1.6 0,0.53335 0.24,1.01335 0.72,1.44 0.50666,0.42668 1.93333,1.04002 4.28,1.84 2.50666,0.88001 4.14665,1.78668 4.92,2.72 0.79999,0.90668 1.21332,1.97334 1.24,3.2 -10e-6,2.16001 -0.81335,3.81334 -2.44,4.96 -1.62668,1.12 -3.80001,1.69334 -6.52,1.72 -1.06667,0 -2.09334,-0.0933 -3.08,-0.28 -0.98667,-0.18666 -2,-0.48 -3.04,-0.88 l -1.52,-4.2 c 1.30667,0.85334 2.62667,1.52001 3.96,2 1.36,0.45334 2.58666,0.68001 3.68,0.68 1.59999,0.0267 2.82666,-0.22666 3.68,-0.76 0.87999,-0.55999 1.31999,-1.26666 1.32,-2.12 -10e-6,-0.61332 -0.22668,-1.14666 -0.68,-1.6 -0.45334,-0.47999 -1.96001,-1.22666 -4.52,-2.24 -2.48,-0.95999 -4.09333,-1.85332 -4.84,-2.68 -0.74667,-0.85332 -1.12,-1.86665 -1.12,-3.04 0,-1.73331 0.65333,-3.10665 1.96,-4.12 1.30666,-1.01331 3.28,-1.53331 5.92,-1.56 0.95999,2e-5 1.85332,0.0667 2.68,0.2 0.85332,0.10669 1.70665,0.28002 2.56,0.52"
     style="font-size:40px;fill:#876d1c;fill-opacity:1"
     id="path3047"
     inkscape:connector-curvature="0" /></g></svg>